681701 725240 504
461376 866291 525
954312 233617 525
732179 192409 509
241474 246240 337
604576 285802 470
133860 811540 509
449457 50681 449
835844 358277 509
770996 578354 509
874005 225249 525
595021 636468 509
672434 609872 509
631704 784480 504
616594 811248 509
954509 900660 507
302574 978156 525
171966 62794 383
105973 157863 383
211268 423102 449
366827 155286 443
136429 638962 509
141409 204938 383
366762 153319 443
291075 199749 443
28213 118080 354
96429 253774 443
227414 279100 443
474602 268537 449
651214 272991 509
198130 319887 443
844014 705257 525
271938 66602 443
864283 286309 525
124383 946503 525
35869 668920 509
905654 409943 525
271721 774940 509
76951 639082 509
567383 887299 525
437620 520756 470
134755 54867 354
231020 153703 443
311076 898104 525
806451 479673 509
363842 162545 443
851876 655050 525
220399 416093 449
347043 447694 449
869574 725651 525
878663 430470 525
34197 961459 525
813075 592882 509
650740 592721 509
908780 184709 525
468379 716428 509
478127 844636 525
69107 58672 335
223577 628307 509
808590 503643 509
942262 27010 525
883057 928467 476
640092 119867 509
575927 667371 509
96636 837135 509
48668 864977 525
41974 756156 509
24365 56107 340
794423 387613 509
103725 62245 351
718617 780332 468
946648 151035 525
10067 586577 470
703111 539195 509
592579 30639 470
974225 884623 507
318987 958639 525
637253 219643 509
385947 312892 441
731014 38946 509
805566 702165 504
69911 255369 443
981834 936589 507
815187 526015 509
117845 795528 509
93309 110830 354
874055 146678 525
74158 553449 470
472585 901832 525
563707 351470 470
750335 356811 509
982626 893248 507
643598 872504 525
447053 446053 325
648156 779127 504
764125 541293 509
389112 275638 441
432181 784277 509
30534 787694 509
682145 444505 509
627187 780856 504
134956 186591 383
470979 410656 444
673398 961088 525
749598 499578 509
384918 399514 436
833679 11864 509
41932 977521 525
563239 140342 470
911386 731524 525
213668 796822 509
863037 208297 525
523961 309406 470
845618 709837 525
555098 793546 509
437459 190265 449
612099 155918 470
873166 185101 525
69624 349895 443
859917 80181 525
902548 898352 401
62280 119896 354
390004 777436 509
813932 49093 509
435918 286358 449
229404 911718 525
176950 19751 383
352147 635762 509
162036 455113 449
479218 398180 449
72217 982860 525
389875 681402 509
694533 710445 504
506060 966342 525
457340 509732 444
819858 339808 509
273092 61882 443
519867 876631 525
335621 207918 443
413341 724572 509
547853 344079 470
769767 391361 509
547318 680877 509
958611 713597 525
848937 323909 525
61145 433349 449
905827 887572 401
501213 292686 449
777408 247454 509
731626 278719 509
840742 859008 419
5572 322972 443
189757 84532 383
400567 901752 525
959216 529030 525
778557 560681 509
204328 891989 525
143265 733904 509
35888 193741 383
166797 243757 443
383290 147288 443
327586 580018 470
778435 861697 525
4235 150836 375
303254 555796 470
826933 999867 525
609047 384335 470
310352 441612 449
270323 916705 525
16319 346633 443
305930 55344 443
51600 489544 449
720139 192899 509
834193 940452 525
712156 915761 525
505875 684155 509
36583 851371 525
729743 22757 509
109086 852366 525
488485 747414 509
295980 323407 384
257628 636506 509
774421 585760 509
881064 184721 525
788590 740958 468
935363 750196 525
71449 921826 525
581936 165341 470
816579 714336 468
884993 321673 525
527094 30016 470
792124 990261 525
558948 728903 509
951424 997988 458
967236 1904 525
542447 588906 452
965777 742628 525
542605 826691 509
210211 63617 383
81993 840954 525
