223130 703605 509
767860 399424 509
289571 564270 470
954129 907412 507
94052 486998 449
586844 373465 470
4675 615178 470
648824 120001 509
207718 257509 443
473386 974023 525
127640 264714 443
210713 690634 509
405538 326244 441
607061 37554 470
806574 38227 509
991614 870284 507
691618 322921 509
335654 297141 384
951175 50313 525
411786 404107 449
662029 33724 509
148046 161788 383
230345 626195 470
484490 112783 449
612854 465364 470
308878 239304 407
856351 645754 525
236899 271013 407
888757 473605 525
624431 527247 452
244205 510275 449
800460 489606 509
978546 162164 525
204159 301090 443
746143 363133 509
332533 630368 509
392676 418293 449
601368 385943 470
955055 105009 525
585940 86232 470
510309 575022 470
243472 153953 443
8712 528625 470
689807 643116 442
636276 444685 509
674397 432560 509
417315 785792 509
281006 647341 509
16786 423033 449
132201 63715 354
670098 340943 509
496015 787003 509
602961 108134 470
545344 901612 525
337391 286126 389
861279 727010 525
612260 872898 525
527042 361506 470
440446 888656 525
397378 883595 525
784165 458968 509
289757 857360 525
305403 140024 443
477727 395672 449
738279 815860 468
834791 113993 509
374631 250931 441
649035 367068 509
383252 732668 509
264212 531782 470
308417 177079 443
378366 482434 449
28897 886592 525
678576 335717 509
443979 471102 444
925102 560595 525
920917 650947 525
22774 436821 449
639712 298945 509
158549 691493 509
677784 480054 509
973808 393174 525
141542 944132 525
264734 135587 443
336702 11077 443
30381 737711 509
324503 288718 384
5798 224589 386
498784 273922 449
794600 56559 509
25578 453430 449
869232 20993 525
76762 83707 351
128804 526300 470
315678 604696 470
442521 435586 400
17633 598012 470
529610 873372 525
581049 717809 509
192141 217192 386
671670 530898 509
687236 976671 525
206007 15192 383
829088 799486 450
626376 879365 525
2865 373793 443
841240 593453 525
855215 290667 525
189457 703454 509
879920 712713 525
533440 611752 452
127699 225682 386
437137 124431 449
407452 745058 509
398677 829529 509
238961 431234 449
534924 222511 470
22073 214349 383
83367 45651 351
705603 524250 509
352562 384240 423
397857 20292 443
21551 748824 509
582776 929065 525
434422 592788 470
56768 64490 335
407466 789623 509
933674 735211 525
135562 194895 383
37158 982422 525
790493 905494 525
624319 923903 525
220381 713012 509
593543 95493 470
967418 272646 525
249440 570174 470
894023 811361 525
503318 211388 449
497736 900992 525
460757 945448 525
811481 79194 509
466566 397851 449
112109 333919 443
501578 246111 449
66637 11226 340
242172 599189 470
404213 202243 443
254652 587091 470
80284 923588 525
796586 225411 509
835036 793838 468
818757 593834 509
77128 260376 443
188249 361090 443
702143 855709 525
961093 950921 414
730275 6277 509
913932 176647 525
728679 624516 509
443189 888032 525
665493 747765 504
510524 974610 525
514405 462762 470
607406 105762 470
197007 543392 470
171206 655322 509
581011 546986 421
900459 359425 525
4795 779474 509
391573 981876 525
461304 721521 509
889943 366002 525
534607 345823 470
319010 771871 509
491996 910118 525
549437 687150 509
438958 492175 444
744033 416716 509
86653 129647 354
897576 610680 525
685544 5384 509
73716 616392 470
685650 223386 509
541392 121047 470
376735 900657 525
605613 661413 509
898860 114708 525
467143 603383 470
609355 833881 509
197763 379204 443
883208 124135 525
648101 625696 509
152348 273684 443
129573 375367 443
532633 48898 470
462892 853298 525
516933 717664 509
615302 72091 470
381082 724215 509
556488 139797 470
552650 296091 470
335415 449794 449
846476 983714 507
536376 163796 470
276617 240035 407
693298 769507 504
419048 244533 449
289305 895694 525
881356 542999 525
370787 594708 470
406011 202358 443
102810 515789 470
986692 38508 525
685173 248950 509
241066 147803 443
413602 320863 449
781209 772262 437
99412 210323 383
664463 741218 504
8297 398012 443
261804 428994 449
320930 142001 443
473875 616658 470
415694 306898 449
317631 496431 449
737993 101875 509
530953 221942 470
934717 85491 525
817256 547156 509
588113 950199 525
524698 740666 509
791374 226043 509
639478 959649 525
166666 466896 449
541577 773862 509
439611 965367 525
333819 270628 389
933429 862422 476
209003 356853 443
706396 210683 509
822984 359929 509
658961 829055 504
993244 88282 525
817691 909363 525
284641 547319 470
691024 233776 509
194662 598443 470
604527 618245 447
922289 819819 525
582198 983879 525
397737 478141 449
814561 330669 509
367344 612978 470
9978 884955 525
983111 832245 525
39563 67790 340
660106 549974 509
118499 71545 354
287978 912655 525
238564 162569 443
837853 80107 525
711650 725545 411
568135 118540 470
927267 583061 525
254258 13533 443
348116 317809 441
395731 603004 470
967186 990297 458
245281 740852 509
288875 505563 449
819061 628210 504
481774 879767 525
606531 187011 470
470161 869021 525
351528 277806 441
420370 896338 525
53865 903381 525
884237 85969 525
749032 423473 509
174943 960256 525
981359 112855 525
982609 693802 525
796443 309621 509
203915 262326 443
183351 338914 443
324248 250286 407
138712 831590 509
280399 12208 443
175218 711741 509
852728 960827 507
623674 443002 470
251026 488305 449
49548 343539 443
961179 459586 525
863442 329096 525
141566 720437 509
19788 813555 509
248471 77255 443
775916 756893 468
569932 757692 509
