17357 865802 525
477063 569542 470
814293 170377 509
816463 801813 406
611472 276590 470
973471 462440 525
254832 97382 443
538787 259964 470
55025 176528 383
583351 671279 509
806083 661514 504
3155 365775 443
939968 360930 525
7667 205769 383
993601 380138 525
950143 530630 525
163528 820194 509
545174 622491 452
16533 283520 443
188269 347168 443
259862 146453 443
694344 898607 525
420079 991502 525
553287 908787 525
116752 214350 383
986896 197269 525
956517 640556 525
533880 603955 452
536269 605696 452
374984 366240 392
703160 917005 525
502249 328472 449
643765 217387 509
805417 424932 509
511716 811777 509
545553 734189 509
614182 14203 470
561426 451431 470
145515 522430 470
538321 940329 525
113191 369528 443
886015 277099 525
892178 909526 445
381738 696401 509
506113 496683 426
513847 77499 470
245004 532659 470
506924 689371 509
978658 725173 525
158756 173641 370
666689 585135 509
782141 629913 504
589907 481919 470
182544 505370 449
715614 190386 509
303601 496299 449
640561 455522 509
81197 252720 443
221719 918433 525
430781 142978 449
752415 827169 468
148074 280261 443
65274 757349 509
723057 442923 509
866336 791641 525
926494 754613 525
517683 897057 525
380739 80226 443
164360 612355 470
439711 925556 525
225040 882345 525
335551 804290 509
84352 125555 354
295524 318910 384
766630 119009 509
53903 511002 449
260846 33353 443
717555 918165 525
304811 880177 525
39375 69802 340
715358 77052 509
145337 836926 509
728380 168809 509
237713 640370 509
684569 401815 509
69029 95983 351
707466 23564 509
317848 736282 509
347907 924278 525
445212 987638 525
327128 451253 449
926792 668377 525
349123 599343 470
53770 883081 525
833263 467905 509
493069 661897 509
39881 19103 324
207216 540884 470
704038 211483 509
447845 917792 525
77392 513697 470
413083 245306 449
568141 929321 525
360511 484805 449
79345 621204 470
30401 64644 340
78763 718090 509
661145 327367 509
298561 888428 525
410755 167735 449
876041 741642 525
456334 701357 509
517018 759826 509
25439 651408 509
752508 424281 509
306796 890429 525
107452 783716 509
478137 907570 525
585682 302687 470
427124 85244 449
235008 356782 441
60754 581360 470
68255 445818 449
834162 244973 509
548350 949773 525
870488 156177 525
707649 396939 509
868281 746996 525
895289 976851 507
744904 480476 509
472710 927387 525
204271 829530 509
255830 451682 449
44732 439072 449
808844 905526 525
925043 638612 525
836933 434368 509
1611 189219 383
378807 526200 470
11134 671578 509
909810 929643 476
778798 107112 509
225672 652024 509
213587 359277 443
601012 169777 470
902140 904554 383
437794 184700 449
880701 896775 445
647817 813198 504
722851 314822 509
888061 608091 525
2484 848373 525
598070 467667 470
522519 387081 470
492807 101343 449
588239 615527 447
222945 892900 525
286731 908321 525
839847 456612 525
532807 678151 509
835537 846199 525
7941 566701 470
349671 468379 449
243970 193335 443
13057 685927 509
759758 928344 525
172060 804358 509
357671 364588 410
140595 640963 509
878214 255248 525
821878 136636 509
227166 178260 386
210081 663157 509
49070 670418 509
205598 725908 509
157740 655719 509
284419 464988 449
145373 224391 386
860763 464075 525
700022 441337 509
717823 360945 509
602432 222638 470
861230 467572 525
709977 644988 504
580471 427250 470
55612 742174 509
623239 74756 470
78177 449701 449
239447 89812 443
291544 83482 443
56171 723372 509
982507 314631 525
67849 702587 509
710564 743749 424
253569 486475 449
829014 433727 509
497391 942731 525
950795 439581 525
457627 999612 525
414616 554819 470
